{
	"type": "minecraft:crafting_shaped",
	"pattern": [
		"P ",
		"P ",
		"PB"
	],
	"key": {
		"B": {"item": "minecraft:black_dye"},
		"P": {"tag": "minecraft:wooden_buttons"}
	},
	"result": {
		"item": "chessmod:black_bishop",
		"count": 1
	}
}
